%YAML 1.1
%TAG !u! tag:unity3d.com,2011:
--- !u!114 &11400000
MonoBehaviour:
  m_ObjectHideFlags: 0
  m_CorrespondingSourceObject: {fileID: 0}
  m_PrefabInstance: {fileID: 0}
  m_PrefabAsset: {fileID: 0}
  m_GameObject: {fileID: 0}
  m_Enabled: 1
  m_EditorHideFlags: 0
  m_Script: {fileID: 11500000, guid: 83a5d0f7fe977404a8653bc4343d81a9, type: 3}
  m_Name: Level
  m_EditorClassIdentifier: 
  levelPrefabs:
  - {fileID: 3334010954216547732, guid: c1b285df7185c2b4dbcd6ec2f8c62be9, type: 3}
  - {fileID: 1605622972454642601, guid: ede94626da846a743965e828d076151d, type: 3}
  - {fileID: 2092811101448214800, guid: 557fff006eb2a484fa78b2641a93e575, type: 3}
  - {fileID: 751738556400547644, guid: c05b604f7118a1d4880fa331fe05737d, type: 3}
  - {fileID: 642758752638655205, guid: 829133fc10090524aaa198ab98c75087, type: 3}
  - {fileID: 3964024213072475445, guid: d631606cdbc4d614c849615272d729f2, type: 3}
  - {fileID: 5829683556849102826, guid: 82ae4303b209dfb4b8ad92df7c57340a, type: 3}
  - {fileID: 5426378150637772741, guid: 1f13d5233368390469ef8d9853192c51, type: 3}
  - {fileID: 16029581977200650, guid: 97d36b668259c5d44868c05e8eaa5c78, type: 3}
  - {fileID: 4487808596785030975, guid: a6d51f6cf84cf4c4a98d87340b138112, type: 3}
