%YAML 1.1
%TAG !u! tag:unity3d.com,2011:
--- !u!78 &1
TagManager:
  serializedVersion: 2
  tags:
  - Paper
  - Picture
  - SaveAndLoadLevel
  - Level
  - LevelBase
  - InputDetector
  - gameplay
  layers:
  - Default
  - TransparentFX
  - Ignore Raycast
  - 
  - Water
  - UI
  - 
  - 
  - 
  - 
  - 
  - 
  - 
  - 
  - 
  - 
  - 
  - 
  - 
  - 
  - 
  - 
  - 
  - 
  - 
  - 
  - 
  - 
  - 
  - 
  - 
  - 
  m_SortingLayers:
  - name: Background
    uniqueID: 3463915861
    locked: 0
  - name: Default
    uniqueID: 0
    locked: 0
  - name: Fold
    uniqueID: 471063265
    locked: 0
  - name: Line
    uniqueID: 1475518405
    locked: 0
  - name: Picture
    uniqueID: 203876915
    locked: 0
